^F:\SARPROJECT\PROJECTORCALIBRATION\SRC\CAMERACONVERTER.CPP|F:\SARPROJECT\PROJECTORCALIBRATION\SRC\PROJECTORCALIB.CPP
F:\SARPROJECT\PROJECTORCALIBRATION\BUILD\PROJCALIB.DIR\DEBUG\VC140.PDB
F:\SARPROJECT\PROJECTORCALIBRATION\BUILD\PROJCALIB.DIR\DEBUG\PROJECTORCALIB.OBJ
F:\SARPROJECT\PROJECTORCALIBRATION\BUILD\PROJCALIB.DIR\DEBUG\CAMERACONVERTER.OBJ
^F:\SARPROJECT\PROJECTORCALIBRATION\SRC\CAMERACONVERTER.CPP
F:\SARPROJECT\PROJECTORCALIBRATION\BUILD\PROJCALIB.DIR\DEBUG\VC140.PDB
^F:\SARPROJECT\PROJECTORCALIBRATION\SRC\PROJECTORCALIB.CPP
F:\SARPROJECT\PROJECTORCALIBRATION\BUILD\PROJCALIB.DIR\DEBUG\VC140.PDB
