^F:\SARPROJECT\PROJECTORCALIBRATION\BUILD\CMAKEFILES\C95DCAA6C3054522DD737F90BB6103C3\GENERATE.STAMP.RULE
C:\PROGRAM FILES (X86)\CMAKE\SHARE\CMAKE-3.5\MODULES\CMAKECINFORMATION.CMAKE
C:\PROGRAM FILES (X86)\CMAKE\SHARE\CMAKE-3.5\MODULES\CMAKECXXINFORMATION.CMAKE
C:\PROGRAM FILES (X86)\CMAKE\SHARE\CMAKE-3.5\MODULES\CMAKECOMMONLANGUAGEINCLUDE.CMAKE
C:\PROGRAM FILES (X86)\CMAKE\SHARE\CMAKE-3.5\MODULES\CMAKEGENERICSYSTEM.CMAKE
C:\PROGRAM FILES (X86)\CMAKE\SHARE\CMAKE-3.5\MODULES\CMAKELANGUAGEINFORMATION.CMAKE
C:\PROGRAM FILES (X86)\CMAKE\SHARE\CMAKE-3.5\MODULES\CMAKERCINFORMATION.CMAKE
C:\PROGRAM FILES (X86)\CMAKE\SHARE\CMAKE-3.5\MODULES\CMAKESYSTEMSPECIFICINFORMATION.CMAKE
C:\PROGRAM FILES (X86)\CMAKE\SHARE\CMAKE-3.5\MODULES\CMAKESYSTEMSPECIFICINITIALIZE.CMAKE
C:\PROGRAM FILES (X86)\CMAKE\SHARE\CMAKE-3.5\MODULES\COMPILER\MSVC-CXX.CMAKE
C:\PROGRAM FILES (X86)\CMAKE\SHARE\CMAKE-3.5\MODULES\PLATFORM\WINDOWS-MSVC-C.CMAKE
C:\PROGRAM FILES (X86)\CMAKE\SHARE\CMAKE-3.5\MODULES\PLATFORM\WINDOWS-MSVC-CXX.CMAKE
C:\PROGRAM FILES (X86)\CMAKE\SHARE\CMAKE-3.5\MODULES\PLATFORM\WINDOWS-MSVC.CMAKE
C:\PROGRAM FILES (X86)\CMAKE\SHARE\CMAKE-3.5\MODULES\PLATFORM\WINDOWS.CMAKE
C:\PROGRAM FILES (X86)\CMAKE\SHARE\CMAKE-3.5\MODULES\PLATFORM\WINDOWSPATHS.CMAKE
F:\SARPROJECT\OPENCV\BUILD\OPENCVCONFIG-VERSION.CMAKE
F:\SARPROJECT\OPENCV\BUILD\OPENCVCONFIG.CMAKE
F:\SARPROJECT\OPENCV\BUILD\OPENCVMODULES.CMAKE
F:\SARPROJECT\PROJECTORCALIBRATION\BUILD\CMAKEFILES\3.5.2\CMAKECCOMPILER.CMAKE
F:\SARPROJECT\PROJECTORCALIBRATION\BUILD\CMAKEFILES\3.5.2\CMAKECXXCOMPILER.CMAKE
F:\SARPROJECT\PROJECTORCALIBRATION\BUILD\CMAKEFILES\3.5.2\CMAKERCCOMPILER.CMAKE
F:\SARPROJECT\PROJECTORCALIBRATION\BUILD\CMAKEFILES\3.5.2\CMAKESYSTEM.CMAKE
F:\SARPROJECT\PROJECTORCALIBRATION\SRC\CMAKELISTS.TXT
